%YAML 1.1
%TAG !u! tag:unity3d.com,2011:
--- !u!114 &11400000
MonoBehaviour:
  m_ObjectHideFlags: 0
  m_CorrespondingSourceObject: {fileID: 0}
  m_PrefabInstance: {fileID: 0}
  m_PrefabAsset: {fileID: 0}
  m_GameObject: {fileID: 0}
  m_Enabled: 1
  m_EditorHideFlags: 0
  m_Script: {fileID: 11500000, guid: c6e1cf64e2648934fac3e5436aabef99, type: 3}
  m_Name: so_ach_useCoal15
  m_EditorClassIdentifier: 
  achievementDataToSave:
    achievementName: Ordinary fuel
    unlocked: 0
    selected: 0
    conditionCompletions: []
    achievementCompletion: 0
  conditions:
  - {fileID: 11400000, guid: 6303dd2d030ad2a4db716b2fbc5d60fa, type: 2}
  unlockAtGameEnd: 0
  allConditionsResolved: 1
  upgrades:
  - upgradeTarget: 0
    upgradeCallType: 1
    upgradeVarName: fuelModifier
    upgradeVarType: 2
    upgradeValueInt:
      multiplier: 0
      valueToSum: 0
    upgradeValueFloat:
      multiplier: 2
      valueToSum: 0
    upgradeValueBool:
      multiplier: 0
      valueToSum: 0
    upgradeValueVecto2:
      multiplier: 0
      valueToSum: {x: 0, y: 0}
    upgradeFloatVariable: {fileID: 0}
    upgradeValueFloatVariable: 0
  description: Put 15 coal into the engine
  effectDescription: Fuel Power +50%
  flavourText: guitarmass
  uiInfo:
    lockedSprite: {fileID: 21300000, guid: 1c273b6f310f39a44926be519300830e, type: 3}
    unlockedSprite: {fileID: 21300000, guid: f769b914a2cae7d4186787f3231cad68, type: 3}
    selectedSprite: {fileID: 21300000, guid: c2c007db40942ad4089e89586c1fed50, type: 3}
    frameLockedSprite: {fileID: 21300000, guid: af9018099d3b72848a95e47390f17bde,
      type: 3}
    frameUnlockedSprite: {fileID: 21300000, guid: 554987f638cd02e41be70af4e2779082,
      type: 3}
    frameSelectedSprite: {fileID: 21300000, guid: 8a501a9b0059ca94faa519a5dc71791a,
      type: 3}
