%YAML 1.1
%TAG !u! tag:unity3d.com,2011:
--- !u!114 &11400000
MonoBehaviour:
  m_ObjectHideFlags: 0
  m_CorrespondingSourceObject: {fileID: 0}
  m_PrefabInstance: {fileID: 0}
  m_PrefabAsset: {fileID: 0}
  m_GameObject: {fileID: 0}
  m_Enabled: 1
  m_EditorHideFlags: 0
  m_Script: {fileID: 11500000, guid: c6e1cf64e2648934fac3e5436aabef99, type: 3}
  m_Name: so_ach_21
  m_EditorClassIdentifier: 
  achievementDataToSave:
    achievementName: Infinite Well
    unlocked: 0
    selected: 0
    conditionCompletions: []
    achievementCompletion: 0
  conditions: []
  unlockAtGameEnd: 1
  upgrades:
  - upgradeTarget: 0
    upgradeCallType: 4
    upgradeVarName: 
    upgradeVarType: 0
    upgradeValueInt:
      multiplier: 0
      valueToSum: 0
    upgradeValueFloat:
      multiplier: 0
      valueToSum: 0
    upgradeValueBool:
      multiplier: 0
      valueToSum: 0
    upgradeValueVecto2:
      multiplier: 0
      valueToSum: {x: 0, y: 0}
    upgradeFloatVariable: {fileID: 0}
    upgradeValueFloatVariable: 0
  description: E io che cazzo ne so...
  effectDescription: 
  flavourText: 
  uiInfo:
    lockedSprite: {fileID: 0}
    unlockedSprite: {fileID: 0}
    selectedSprite: {fileID: 0}
    frameLockedSprite: {fileID: 21300000, guid: b143059a4883b3e4c944c1a3e199affc,
      type: 3}
    frameUnlockedSprite: {fileID: 21300000, guid: 644acff516284224a8e3792aa39bd380,
      type: 3}
    frameSelectedSprite: {fileID: 21300000, guid: 1ca6dbc94be58be41ba87cb14f6d91a6,
      type: 3}
