%YAML 1.1
%TAG !u! tag:unity3d.com,2011:
--- !u!114 &11400000
MonoBehaviour:
  m_ObjectHideFlags: 0
  m_CorrespondingSourceObject: {fileID: 0}
  m_PrefabInstance: {fileID: 0}
  m_PrefabAsset: {fileID: 0}
  m_GameObject: {fileID: 0}
  m_Enabled: 1
  m_EditorHideFlags: 0
  m_Script: {fileID: 11500000, guid: e7867d4b68fa23e4e8b38d9ee6f6fbde, type: 3}
  m_Name: so_info_resourcespawner
  m_EditorClassIdentifier: 
  infoImage: {fileID: 21300000, guid: 26d9e162b9c36f946987f0ac9a71c908, type: 3}
  infoText: From the Resource Spawner all the stuff that you has drilled will come
    out from here!
