%YAML 1.1
%TAG !u! tag:unity3d.com,2011:
--- !u!114 &11400000
MonoBehaviour:
  m_ObjectHideFlags: 0
  m_CorrespondingSourceObject: {fileID: 0}
  m_PrefabInstance: {fileID: 0}
  m_PrefabAsset: {fileID: 0}
  m_GameObject: {fileID: 0}
  m_Enabled: 1
  m_EditorHideFlags: 0
  m_Script: {fileID: 11500000, guid: 10843130436695247b5d2dbfbec98467, type: 3}
  m_Name: so_genMtd_blend_1
  m_EditorClassIdentifier: 
  layers:
  - scale: 20
    offset: {x: 0, y: 0}
  - scale: 10
    offset: {x: 0, y: 0}
  - scale: 15
    offset: {x: 0, y: 0}
  - scale: 2.09
    offset: {x: 0, y: 0}
  blends:
  - blendWithFixedValue: 0
    blendValue: 0
    blendGridScale: 6
    blendGridOffset: {x: 0, y: 0}
  - blendWithFixedValue: 0
    blendValue: 0
    blendGridScale: 15
    blendGridOffset: {x: 0, y: 0}
  - blendWithFixedValue: 1
    blendValue: 0.5
    blendGridScale: 0
    blendGridOffset: {x: 0, y: 0}
  blendDataFlow: 1
