%YAML 1.1
%TAG !u! tag:unity3d.com,2011:
--- !u!21 &2100000
Material:
  serializedVersion: 6
  m_ObjectHideFlags: 0
  m_CorrespondingSourceObject: {fileID: 0}
  m_PrefabInstance: {fileID: 0}
  m_PrefabAsset: {fileID: 0}
  m_Name: mat_intro
  m_Shader: {fileID: 210, guid: 0000000000000000f000000000000000, type: 0}
  m_ShaderKeywords: 
  m_LightmapFlags: 0
  m_EnableInstancingVariants: 0
  m_DoubleSidedGI: 0
  m_CustomRenderQueue: -1
  stringTagMap:
    AlphaDepth: true
    IGNOREPROJECTOR: true
  disabledShaderPasses:
  - ALWAYS
  m_SavedProperties:
    serializedVersion: 3
    m_TexEnvs:
    - _AlphaTex:
        m_Texture: {fileID: 0}
        m_Scale: {x: 1, y: 1}
        m_Offset: {x: 0, y: 0}
    - _BlendTex:
        m_Texture: {fileID: 0}
        m_Scale: {x: 1, y: 1}
        m_Offset: {x: 0, y: 0}
    - _BumpMap:
        m_Texture: {fileID: 0}
        m_Scale: {x: 1, y: 1}
        m_Offset: {x: 0, y: 0}
    - _DetailAlbedoMap:
        m_Texture: {fileID: 0}
        m_Scale: {x: 1, y: 1}
        m_Offset: {x: 0, y: 0}
    - _DetailMask:
        m_Texture: {fileID: 0}
        m_Scale: {x: 1, y: 1}
        m_Offset: {x: 0, y: 0}
    - _DetailNormalMap:
        m_Texture: {fileID: 0}
        m_Scale: {x: 1, y: 1}
        m_Offset: {x: 0, y: 0}
    - _DetailTex:
        m_Texture: {fileID: 8400000, guid: d4406f8f2b5966244b7985dfbde7aed4, type: 2}
        m_Scale: {x: 1, y: 1}
        m_Offset: {x: 0, y: 0}
    - _DiffuseRamp:
        m_Texture: {fileID: 0}
        m_Scale: {x: 1, y: 1}
        m_Offset: {x: 0, y: 0}
    - _EmissionMap:
        m_Texture: {fileID: 0}
        m_Scale: {x: 1, y: 1}
        m_Offset: {x: 0, y: 0}
    - _MainBump:
        m_Texture: {fileID: 8400000, guid: d4406f8f2b5966244b7985dfbde7aed4, type: 2}
        m_Scale: {x: 1, y: 1}
        m_Offset: {x: 0, y: 0}
    - _MainTex:
        m_Texture: {fileID: 8400000, guid: d4406f8f2b5966244b7985dfbde7aed4, type: 2}
        m_Scale: {x: 1.02, y: 1}
        m_Offset: {x: 0, y: 0}
    - _MetallicGlossMap:
        m_Texture: {fileID: 0}
        m_Scale: {x: 1, y: 1}
        m_Offset: {x: 0, y: 0}
    - _OcclusionMap:
        m_Texture: {fileID: 0}
        m_Scale: {x: 1, y: 1}
        m_Offset: {x: 0, y: 0}
    - _ParallaxMap:
        m_Texture: {fileID: 0}
        m_Scale: {x: 1, y: 1}
        m_Offset: {x: 0, y: 0}
    - _SpecGlossMap:
        m_Texture: {fileID: 0}
        m_Scale: {x: 1, y: 1}
        m_Offset: {x: 0, y: 0}
    m_Floats:
    - PixelSnap: 0
    - _BlendAmount: 0
    - _BlendOp: 0
    - _Brightness: 1
    - _BumpScale: 1
    - _CameraFadingEnabled: 0
    - _CameraFarFadeDistance: 2
    - _CameraNearFadeDistance: 1
    - _ColorMask: 15
    - _Cull: 0
    - _CustomRenderQueue: 0
    - _Cutoff: 0.5
    - _DetailNormalMapScale: 1
    - _Dissolve: 0
    - _DissolveEdgePower: 0.1
    - _DissolveNoiseScale: 1
    - _DistortionBlend: 0.5
    - _DistortionEnabled: 0
    - _DistortionStrength: 1
    - _DistortionStrengthScaled: 0
    - _DstBlend: 0
    - _EmissionEnabled: 0
    - _EmissionPower: 1
    - _EnableExternalAlpha: 0
    - _FlipbookMode: 0
    - _GlossMapScale: 1
    - _Glossiness: 0.5
    - _GlossyReflections: 1
    - _Hue: 0
    - _LightingEnabled: 1
    - _Metallic: 0
    - _Mode: 0
    - _OcclusionStrength: 1
    - _Parallax: 0.02
    - _RenderQueue: 0
    - _RimPower: 2
    - _Saturation: 1
    - _ShadowAlphaCutoff: 0.1
    - _Shininess: 1
    - _SmoothnessTextureChannel: 0
    - _SoftParticlesEnabled: 0
    - _SoftParticlesFarFadeDistance: 1
    - _SoftParticlesNearFadeDistance: 0
    - _SpecularHighlights: 1
    - _SrcBlend: 1
    - _Stencil: 2.25
    - _StencilComp: 8
    - _StencilOp: 3.8
    - _StencilReadMask: 255
    - _StencilWriteMask: 255
    - _Strength: 0.2
    - _UVSec: 0
    - _UseUIAlphaClip: 0
    - _ZWrite: 1
    m_Colors:
    - _CameraFadeParams: {r: 0, g: Infinity, b: 0, a: 0}
    - _Color: {r: 1, g: 1, b: 1, a: 1}
    - _DissolveEdgeColor: {r: 1, g: 1, b: 1, a: 1}
    - _DissolveNoiseSpeed: {r: 0, g: 0, b: 0, a: 1}
    - _EmissionColor: {r: 0, g: 0, b: 0, a: 1}
    - _FixedNormal: {r: 0, g: 0, b: 1, a: 1}
    - _OverlayColor: {r: 0, g: 0, b: 0, a: 0}
    - _RimColor: {r: 1, g: 1, b: 1, a: 1}
    - _SoftParticleFadeParams: {r: 0, g: 0, b: 0, a: 0}
    - _SpecColor: {r: 0.2, g: 0.2, b: 0.2, a: 1}
    - _Specular: {r: 1, g: 1, b: 1, a: 1}
