%YAML 1.1
%TAG !u! tag:unity3d.com,2011:
--- !u!114 &11400000
MonoBehaviour:
  m_ObjectHideFlags: 0
  m_CorrespondingSourceObject: {fileID: 0}
  m_PrefabInstance: {fileID: 0}
  m_PrefabAsset: {fileID: 0}
  m_GameObject: {fileID: 0}
  m_Enabled: 1
  m_EditorHideFlags: 0
  m_Script: {fileID: 11500000, guid: 812e815dcd9332a4daa3880cf9524949, type: 3}
  m_Name: so_resource_stone_lvl1
  m_EditorClassIdentifier: 
  type: {fileID: 11400000, guid: e93ed2468ffe8f243872a1efd8883d24, type: 2}
  isFontOfFuel: 0
  minFuel: 0
  maxFuel: 1
  coefficent: 0.5
  minMass: 100
  maxMass: 300
  minScale: 0.8
  maxScale: 4
  deathParticle: {fileID: 6145376107641210512, guid: 3a7fc78d208a646458938b01b7d4422b,
    type: 3}
