%YAML 1.1
%TAG !u! tag:unity3d.com,2011:
--- !u!114 &11400000
MonoBehaviour:
  m_ObjectHideFlags: 0
  m_CorrespondingSourceObject: {fileID: 0}
  m_PrefabInstance: {fileID: 0}
  m_PrefabAsset: {fileID: 0}
  m_GameObject: {fileID: 0}
  m_Enabled: 1
  m_EditorHideFlags: 0
  m_Script: {fileID: 11500000, guid: 18674dca97816f748b61ec0517dd1c9a, type: 3}
  m_Name: so_ach_cnd_int_gatDirt100
  m_EditorClassIdentifier: 
  id: 9
  completion: 0
  goal: 100
  currentValue: 0
  isMinor: 0
  isEqual: 1
  isMajor: 1
